[
    {
        "id": 1,
        "name_en": "[Film] GO MAKE UP",
        "name_th": "[Film] GO MAKE UP TH",
        "type": "F",
        "is_active": "Y",
        "img_en": "20200122115851.jpg",
        "img_th": "20200122115854.jpg",
        "detail_film": "<p><iframe frameborder=\"0\" src=\"//www.youtube.com/embed/Akvy47c19dI\" width=\"640\" height=\"360\" class=\"note-video-clip\"></iframe><br></p>",
        "detail_en": null,
        "detail_th": null,
        "link_video": "https://youtu.be/zggkI75Fwio",
        "created_at": "2020-04-01 20:09:38",
        "updated_at": "2020-04-01 20:09:38"
    },
    {
        "id": 2,
        "name_en": "[Film] TVC MAKE UP",
        "name_th": "[Film] TVC MAKE UP",
        "type": "F",
        "is_active": "Y",
        "img_en": "20200122115916.jpg",
        "img_th": "20200122115919.jpg",
        "detail_film": "<p><iframe frameborder=\"0\" src=\"//www.youtube.com/embed/29tc1CZmZa4\" width=\"640\" height=\"360\" class=\"note-video-clip\"></iframe><br></p>",
        "detail_en": null,
        "detail_th": null,
        "link_video": "https://youtu.be/zggkI75Fwio",
        "created_at": "2020-04-01 20:09:38",
        "updated_at": "2020-04-01 20:09:38"
    },
    {
        "id": 3,
        "name_en": "[Film] Star-cealer foundation How to",
        "name_th": "[Film] Star-cealer foundation How to",
        "type": "F",
        "is_active": "Y",
        "img_en": "20200122115958.jpg",
        "img_th": "20200122120002.jpg",
        "detail_film": "<p><iframe frameborder=\"0\" src=\"//www.youtube.com/embed/NKncf6YCBwg\" width=\"640\" height=\"360\" class=\"note-video-clip\"></iframe><br></p>",
        "detail_en": null,
        "detail_th": null,
        "link_video": "https://youtu.be/zggkI75Fwio",
        "created_at": "2020-04-01 20:09:38",
        "updated_at": "2020-04-01 20:09:38"
    },
    {
        "id": 17,
        "name_en": "[Film] High Tinted Lip Lacquer Hyper Matt & Full Glaze",
        "name_th": "[Film] High Tinted Lip Lacquer Hyper Matt & Full Glaze",
        "type": "F",
        "is_active": "Y",
        "img_en": "20200122120140.jpg",
        "img_th": "20200122120143.jpg",
        "detail_film": "<p><iframe frameborder=\"0\" src=\"//www.youtube.com/embed/YkoIeiJj38E\" width=\"640\" height=\"360\" class=\"note-video-clip\"></iframe><br></p>",
        "detail_en": null,
        "detail_th": null,
        "link_video": "https://youtu.be/zggkI75Fwio",
        "created_at": "2020-04-01 20:09:38",
        "updated_at": "2020-04-01 20:09:38"
    },
    {
        "id": 18,
        "name_en": "Concept",
        "name_th": "คอนเซ็ปต์",
        "type": "C",
        "is_active": "Y",
        "img_en": "20200401200401.png",
        "img_th": "20200407130310.jpg",
        "detail_film": "<p><iframe frameborder=\"0\" src=\"//www.youtube.com/embed/zggkI75Fwio\" width=\"640\" height=\"360\" class=\"note-video-clip\"></iframe><br></p>",
        "detail_en": null,
        "detail_th": null,
        "link_video": "https://youtu.be/zggkI75Fwio",
        "created_at": "2020-04-01 20:09:38",
        "updated_at": "2020-04-07 13:03:13"
    },
    {
        "id": 19,
        "name_en": "201706_마리끌레르",
        "name_th": "201706_마리끌레르",
        "type": "M",
        "is_active": "Y",
        "img_en": "20200122152816.jpg",
        "img_th": "20191127111640.jpg",
        "detail_film": null,
        "detail_en": "<p><iframe frameborder=\"0\" src=\"//www.youtube.com/embed/zggkI75Fwio\" width=\"640\" height=\"360\" class=\"note-video-clip\"></iframe><br></p>",
        "detail_th": "<p><iframe frameborder=\"0\" src=\"//www.youtube.com/embed/zggkI75Fwio\" width=\"640\" height=\"360\" class=\"note-video-clip\"></iframe><br></p>",
        "link_video": null,
        "created_at": "2020-04-01 20:09:38",
        "updated_at": "2020-04-01 20:09:38"
    },
    {
        "id": 20,
        "name_en": "[Film] Artist Layer Concealing base",
        "name_th": "[Film] Artist Layer Concealing base TH",
        "type": "F",
        "is_active": "Y",
        "img_en": "20200122120805.jpg",
        "img_th": "20200122120808.jpg",
        "detail_film": "<p><iframe frameborder=\"0\" src=\"//www.youtube.com/embed/zggkI75Fwio\" width=\"640\" height=\"360\" class=\"note-video-clip\"></iframe><br></p>",
        "detail_en": null,
        "detail_th": null,
        "link_video": null,
        "created_at": "2020-04-01 20:09:38",
        "updated_at": "2020-04-01 20:09:38"
    },
    {
        "id": 21,
        "name_en": "201706_보그",
        "name_th": "201706_보그",
        "type": "M",
        "is_active": "Y",
        "img_en": "20200122152905.jpg",
        "img_th": null,
        "detail_film": null,
        "detail_en": null,
        "detail_th": null,
        "link_video": null,
        "created_at": "2020-04-01 20:09:38",
        "updated_at": "2020-04-01 20:09:38"
    },
    {
        "id": 22,
        "name_en": "201706_쎄씨",
        "name_th": "201706_쎄씨",
        "type": "M",
        "is_active": "Y",
        "img_en": "20200122152921.jpg",
        "img_th": null,
        "detail_film": null,
        "detail_en": null,
        "detail_th": null,
        "link_video": null,
        "created_at": "2020-04-01 20:09:38",
        "updated_at": "2020-04-01 20:09:38"
    },
    {
        "id": 23,
        "name_en": "201706_얼루어(1)",
        "name_th": "201706_얼루어(1)",
        "type": "M",
        "is_active": "Y",
        "img_en": "20200122152957.jpg",
        "img_th": null,
        "detail_film": null,
        "detail_en": null,
        "detail_th": null,
        "link_video": null,
        "created_at": "2020-04-01 20:09:38",
        "updated_at": "2020-04-01 20:09:38"
    },
    {
        "id": 24,
        "name_en": "201706_얼루어(2)",
        "name_th": "201706_얼루어(2)",
        "type": "M",
        "is_active": "Y",
        "img_en": "20200122153412.jpg",
        "img_th": null,
        "detail_film": null,
        "detail_en": null,
        "detail_th": null,
        "link_video": null,
        "created_at": "2020-04-01 20:09:38",
        "updated_at": "2020-04-01 20:09:38"
    }
]