[
    {
        "id": 77,
        "seq": 1,
        "linestory_id": 1,
        "detail_type": null,
        "img_en": "20200426122858rVtAz.jpg",
        "img_th": null,
        "is_active": "Y",
        "created_at": "2020-04-26 12:29:00",
        "updated_at": "2020-04-26 12:29:00"
    },
    {
        "id": 78,
        "seq": 1,
        "linestory_id": 2,
        "detail_type": null,
        "img_en": "20200426122910WlEzH.jpg",
        "img_th": null,
        "is_active": "Y",
        "created_at": "2020-04-26 12:29:11",
        "updated_at": "2020-04-26 12:29:11"
    },
    {
        "id": 79,
        "seq": 1,
        "linestory_id": 3,
        "detail_type": null,
        "img_en": "20200426122922wLD6H.jpg",
        "img_th": null,
        "is_active": "Y",
        "created_at": "2020-04-26 12:29:23",
        "updated_at": "2020-04-26 12:29:23"
    },
    {
        "id": 80,
        "seq": 1,
        "linestory_id": 4,
        "detail_type": null,
        "img_en": "20200426122933r6w1L.jpg",
        "img_th": null,
        "is_active": "Y",
        "created_at": "2020-04-26 12:29:35",
        "updated_at": "2020-04-26 12:29:35"
    },
    {
        "id": 81,
        "seq": 1,
        "linestory_id": 5,
        "detail_type": null,
        "img_en": "20200426122945XsQep.jpg",
        "img_th": null,
        "is_active": "Y",
        "created_at": "2020-04-26 12:29:46",
        "updated_at": "2020-04-26 12:29:46"
    }
]