[
    {
        "id": 2,
        "seq": 1,
        "product_id": 2,
        "detail_type": null,
        "img_th": "20191216111700NcxRp.png",
        "is_active": "Y",
        "created_at": "2020-04-28 15:48:32",
        "updated_at": "2020-04-28 15:48:32"
    },
    {
        "id": 3,
        "seq": 2,
        "product_id": 2,
        "detail_type": null,
        "img_th": "20191216111713sitAh.gif",
        "is_active": "Y",
        "created_at": "2020-04-28 15:48:32",
        "updated_at": "2020-04-28 15:48:32"
    },
    {
        "id": 4,
        "seq": 3,
        "product_id": 2,
        "detail_type": null,
        "img_th": "201912161117227AEbp.png",
        "is_active": "Y",
        "created_at": "2020-04-28 15:48:32",
        "updated_at": "2020-04-28 15:48:32"
    },
    {
        "id": 5,
        "seq": 1,
        "product_id": 3,
        "detail_type": null,
        "img_th": "20191216112406j5vtA.jpg",
        "is_active": "Y",
        "created_at": "2020-04-28 15:48:32",
        "updated_at": "2020-04-28 15:48:32"
    },
    {
        "id": 6,
        "seq": 2,
        "product_id": 3,
        "detail_type": null,
        "img_th": "20191216112420oZPA5.gif",
        "is_active": "Y",
        "created_at": "2020-04-28 15:48:32",
        "updated_at": "2020-04-28 15:48:32"
    },
    {
        "id": 7,
        "seq": 3,
        "product_id": 3,
        "detail_type": null,
        "img_th": "201912161124316ZTL8.png",
        "is_active": "Y",
        "created_at": "2020-04-28 15:48:32",
        "updated_at": "2020-04-28 15:48:32"
    },
    {
        "id": 9,
        "seq": 1,
        "product_id": 5,
        "detail_type": null,
        "img_th": "20191216121418ECH7M.png",
        "is_active": "Y",
        "created_at": "2020-04-28 15:48:32",
        "updated_at": "2020-04-28 15:48:32"
    },
    {
        "id": 10,
        "seq": 2,
        "product_id": 5,
        "detail_type": null,
        "img_th": "20191216121426L94GK.jpg",
        "is_active": "Y",
        "created_at": "2020-04-28 15:48:32",
        "updated_at": "2020-04-28 15:48:32"
    },
    {
        "id": 11,
        "seq": 3,
        "product_id": 5,
        "detail_type": null,
        "img_th": "20191216121436PA9eM.gif",
        "is_active": "Y",
        "created_at": "2020-04-28 15:48:32",
        "updated_at": "2020-04-28 15:48:32"
    },
    {
        "id": 12,
        "seq": 4,
        "product_id": 5,
        "detail_type": null,
        "img_th": "20191216121443wxlrt.png",
        "is_active": "Y",
        "created_at": "2020-04-28 15:48:32",
        "updated_at": "2020-04-28 15:48:32"
    },
    {
        "id": 13,
        "seq": 5,
        "product_id": 5,
        "detail_type": null,
        "img_th": "20191216121451L46Yq.gif",
        "is_active": "Y",
        "created_at": "2020-04-28 15:48:32",
        "updated_at": "2020-04-28 15:48:32"
    },
    {
        "id": 14,
        "seq": 6,
        "product_id": 5,
        "detail_type": null,
        "img_th": "20191216121502EqaqC.gif",
        "is_active": "Y",
        "created_at": "2020-04-28 15:48:32",
        "updated_at": "2020-04-28 15:48:32"
    },
    {
        "id": 15,
        "seq": 7,
        "product_id": 5,
        "detail_type": null,
        "img_th": "20191216121512ivyJt.gif",
        "is_active": "Y",
        "created_at": "2020-04-28 15:48:32",
        "updated_at": "2020-04-28 15:48:32"
    },
    {
        "id": 16,
        "seq": 8,
        "product_id": 5,
        "detail_type": null,
        "img_th": "20191216121523S6pAd.png",
        "is_active": "Y",
        "created_at": "2020-04-28 15:48:32",
        "updated_at": "2020-04-28 15:48:32"
    },
    {
        "id": 17,
        "seq": 1,
        "product_id": 6,
        "detail_type": null,
        "img_th": "20191216122643n49Qf.png",
        "is_active": "Y",
        "created_at": "2020-04-28 15:48:32",
        "updated_at": "2020-04-28 15:48:32"
    },
    {
        "id": 18,
        "seq": 2,
        "product_id": 6,
        "detail_type": null,
        "img_th": "20191216122650FMoU5.png",
        "is_active": "Y",
        "created_at": "2020-04-28 15:48:32",
        "updated_at": "2020-04-28 15:48:32"
    },
    {
        "id": 19,
        "seq": 3,
        "product_id": 6,
        "detail_type": null,
        "img_th": "20191216122702byTFC.gif",
        "is_active": "Y",
        "created_at": "2020-04-28 15:48:32",
        "updated_at": "2020-04-28 15:48:32"
    },
    {
        "id": 20,
        "seq": 4,
        "product_id": 6,
        "detail_type": null,
        "img_th": "20191216122709vdaWq.png",
        "is_active": "Y",
        "created_at": "2020-04-28 15:48:32",
        "updated_at": "2020-04-28 15:48:32"
    },
    {
        "id": 21,
        "seq": 5,
        "product_id": 6,
        "detail_type": null,
        "img_th": "20191216122723SpyQr.gif",
        "is_active": "Y",
        "created_at": "2020-04-28 15:48:32",
        "updated_at": "2020-04-28 15:48:32"
    },
    {
        "id": 22,
        "seq": 6,
        "product_id": 6,
        "detail_type": null,
        "img_th": "20191216122731hBapq.gif",
        "is_active": "Y",
        "created_at": "2020-04-28 15:48:32",
        "updated_at": "2020-04-28 15:48:32"
    },
    {
        "id": 23,
        "seq": 7,
        "product_id": 6,
        "detail_type": null,
        "img_th": "20191216122740lJrmU.gif",
        "is_active": "Y",
        "created_at": "2020-04-28 15:48:32",
        "updated_at": "2020-04-28 15:48:32"
    },
    {
        "id": 24,
        "seq": 8,
        "product_id": 6,
        "detail_type": null,
        "img_th": "20191216122754hzKFH.png",
        "is_active": "Y",
        "created_at": "2020-04-28 15:48:32",
        "updated_at": "2020-04-28 15:48:32"
    },
    {
        "id": 26,
        "seq": 1,
        "product_id": 8,
        "detail_type": null,
        "img_th": "201912161246592V6L8.jpg",
        "is_active": "Y",
        "created_at": "2020-04-28 15:48:32",
        "updated_at": "2020-04-28 15:48:32"
    },
    {
        "id": 28,
        "seq": 1,
        "product_id": 10,
        "detail_type": null,
        "img_th": "20191216140056vgskN.png",
        "is_active": "Y",
        "created_at": "2020-04-28 15:48:32",
        "updated_at": "2020-04-28 15:48:32"
    },
    {
        "id": 29,
        "seq": 2,
        "product_id": 10,
        "detail_type": null,
        "img_th": "20191216140215Vx0su.gif",
        "is_active": "Y",
        "created_at": "2020-04-28 15:48:32",
        "updated_at": "2020-04-28 15:48:32"
    },
    {
        "id": 30,
        "seq": 3,
        "product_id": 10,
        "detail_type": null,
        "img_th": "2019121614022402AtH.jpg",
        "is_active": "Y",
        "created_at": "2020-04-28 15:48:32",
        "updated_at": "2020-04-28 15:48:32"
    },
    {
        "id": 31,
        "seq": 4,
        "product_id": 10,
        "detail_type": null,
        "img_th": "201912161402342Rno3.gif",
        "is_active": "Y",
        "created_at": "2020-04-28 15:48:32",
        "updated_at": "2020-04-28 15:48:32"
    },
    {
        "id": 32,
        "seq": 5,
        "product_id": 10,
        "detail_type": null,
        "img_th": "20191216140248iow2y.png",
        "is_active": "Y",
        "created_at": "2020-04-28 15:48:32",
        "updated_at": "2020-04-28 15:48:32"
    },
    {
        "id": 33,
        "seq": 1,
        "product_id": 11,
        "detail_type": null,
        "img_th": "20191216143527ggvoW.png",
        "is_active": "Y",
        "created_at": "2020-04-28 15:48:32",
        "updated_at": "2020-04-28 15:48:32"
    },
    {
        "id": 34,
        "seq": 2,
        "product_id": 11,
        "detail_type": null,
        "img_th": "20191216143538JVWYX.gif",
        "is_active": "Y",
        "created_at": "2020-04-28 15:48:32",
        "updated_at": "2020-04-28 15:48:32"
    },
    {
        "id": 35,
        "seq": 3,
        "product_id": 11,
        "detail_type": null,
        "img_th": "20191216143544N88gr.jpg",
        "is_active": "Y",
        "created_at": "2020-04-28 15:48:32",
        "updated_at": "2020-04-28 15:48:32"
    },
    {
        "id": 36,
        "seq": 4,
        "product_id": 11,
        "detail_type": null,
        "img_th": "20191216143551uxijK.gif",
        "is_active": "Y",
        "created_at": "2020-04-28 15:48:32",
        "updated_at": "2020-04-28 15:48:32"
    },
    {
        "id": 37,
        "seq": 5,
        "product_id": 11,
        "detail_type": null,
        "img_th": "2019121614360940UIX.png",
        "is_active": "Y",
        "created_at": "2020-04-28 15:48:32",
        "updated_at": "2020-04-28 15:48:32"
    },
    {
        "id": 38,
        "seq": 1,
        "product_id": 12,
        "detail_type": null,
        "img_th": "20191216144603UbAAR.png",
        "is_active": "Y",
        "created_at": "2020-04-28 15:48:32",
        "updated_at": "2020-04-28 15:48:32"
    },
    {
        "id": 39,
        "seq": 2,
        "product_id": 12,
        "detail_type": null,
        "img_th": "201912161446167eIda.gif",
        "is_active": "Y",
        "created_at": "2020-04-28 15:48:32",
        "updated_at": "2020-04-28 15:48:32"
    },
    {
        "id": 40,
        "seq": 3,
        "product_id": 12,
        "detail_type": null,
        "img_th": "20191216144622Rw6dl.jpg",
        "is_active": "Y",
        "created_at": "2020-04-28 15:48:32",
        "updated_at": "2020-04-28 15:48:32"
    },
    {
        "id": 41,
        "seq": 4,
        "product_id": 12,
        "detail_type": null,
        "img_th": "201912161446300deD9.gif",
        "is_active": "Y",
        "created_at": "2020-04-28 15:48:32",
        "updated_at": "2020-04-28 15:48:32"
    },
    {
        "id": 42,
        "seq": 5,
        "product_id": 12,
        "detail_type": null,
        "img_th": "20191216144636lkIP8.jpg",
        "is_active": "Y",
        "created_at": "2020-04-28 15:48:32",
        "updated_at": "2020-04-28 15:48:32"
    },
    {
        "id": 43,
        "seq": 1,
        "product_id": 13,
        "detail_type": null,
        "img_th": "20191216145315n2Vz7.jpg",
        "is_active": "Y",
        "created_at": "2020-04-28 15:48:32",
        "updated_at": "2020-04-28 15:48:32"
    },
    {
        "id": 44,
        "seq": 1,
        "product_id": 14,
        "detail_type": null,
        "img_th": "20191216150428bcOHO.png",
        "is_active": "Y",
        "created_at": "2020-04-28 15:48:32",
        "updated_at": "2020-04-28 15:48:32"
    },
    {
        "id": 45,
        "seq": 2,
        "product_id": 14,
        "detail_type": null,
        "img_th": "20191216150438XzXC4.gif",
        "is_active": "Y",
        "created_at": "2020-04-28 15:48:32",
        "updated_at": "2020-04-28 15:48:32"
    },
    {
        "id": 46,
        "seq": 3,
        "product_id": 14,
        "detail_type": null,
        "img_th": "20191216150446GpkBJ.gif",
        "is_active": "Y",
        "created_at": "2020-04-28 15:48:32",
        "updated_at": "2020-04-28 15:48:32"
    },
    {
        "id": 47,
        "seq": 4,
        "product_id": 14,
        "detail_type": null,
        "img_th": "201912161505011ZbTs.png",
        "is_active": "Y",
        "created_at": "2020-04-28 15:48:32",
        "updated_at": "2020-04-28 15:48:32"
    },
    {
        "id": 48,
        "seq": 1,
        "product_id": 15,
        "detail_type": null,
        "img_th": "20191216151835tWJ94.png",
        "is_active": "Y",
        "created_at": "2020-04-28 15:48:32",
        "updated_at": "2020-04-28 15:48:32"
    },
    {
        "id": 49,
        "seq": 2,
        "product_id": 15,
        "detail_type": null,
        "img_th": "20191216151846R5rWG.gif",
        "is_active": "Y",
        "created_at": "2020-04-28 15:48:32",
        "updated_at": "2020-04-28 15:48:32"
    },
    {
        "id": 50,
        "seq": 3,
        "product_id": 15,
        "detail_type": null,
        "img_th": "20191216151857m1uaL.gif",
        "is_active": "Y",
        "created_at": "2020-04-28 15:48:32",
        "updated_at": "2020-04-28 15:48:32"
    },
    {
        "id": 51,
        "seq": 4,
        "product_id": 15,
        "detail_type": null,
        "img_th": "20191216151903T2Dr3.jpg",
        "is_active": "Y",
        "created_at": "2020-04-28 15:48:32",
        "updated_at": "2020-04-28 15:48:32"
    },
    {
        "id": 52,
        "seq": 1,
        "product_id": 16,
        "detail_type": null,
        "img_th": "20191216152703I0ZFI.jpg",
        "is_active": "Y",
        "created_at": "2020-04-28 15:48:32",
        "updated_at": "2020-04-28 15:48:32"
    },
    {
        "id": 53,
        "seq": 1,
        "product_id": 17,
        "detail_type": null,
        "img_th": "20191216153353HLMXk.png",
        "is_active": "Y",
        "created_at": "2020-04-28 15:48:32",
        "updated_at": "2020-04-28 15:48:32"
    },
    {
        "id": 54,
        "seq": 1,
        "product_id": 18,
        "detail_type": null,
        "img_th": "20191216154404yOWRq.jpg",
        "is_active": "Y",
        "created_at": "2020-04-28 15:48:32",
        "updated_at": "2020-04-28 15:48:32"
    },
    {
        "id": 55,
        "seq": 1,
        "product_id": 19,
        "detail_type": null,
        "img_th": "201912161547545OyCv.jpg",
        "is_active": "Y",
        "created_at": "2020-04-28 15:48:32",
        "updated_at": "2020-04-28 15:48:32"
    },
    {
        "id": 56,
        "seq": 1,
        "product_id": 20,
        "detail_type": null,
        "img_th": "20191216155157AfDx3.png",
        "is_active": "Y",
        "created_at": "2020-04-28 15:48:32",
        "updated_at": "2020-04-28 15:48:32"
    },
    {
        "id": 57,
        "seq": 2,
        "product_id": 20,
        "detail_type": null,
        "img_th": "201912161552037dotF.jpg",
        "is_active": "Y",
        "created_at": "2020-04-28 15:48:32",
        "updated_at": "2020-04-28 15:48:32"
    },
    {
        "id": 58,
        "seq": 1,
        "product_id": 21,
        "detail_type": null,
        "img_th": "201912161646582OOX5.png",
        "is_active": "Y",
        "created_at": "2020-04-28 15:48:32",
        "updated_at": "2020-04-28 15:48:32"
    },
    {
        "id": 59,
        "seq": 2,
        "product_id": 21,
        "detail_type": null,
        "img_th": "20191216164705XUl0T.gif",
        "is_active": "Y",
        "created_at": "2020-04-28 15:48:32",
        "updated_at": "2020-04-28 15:48:32"
    },
    {
        "id": 60,
        "seq": 3,
        "product_id": 21,
        "detail_type": null,
        "img_th": "20191216164711ftHAG.png",
        "is_active": "Y",
        "created_at": "2020-04-28 15:48:32",
        "updated_at": "2020-04-28 15:48:32"
    },
    {
        "id": 66,
        "seq": 1,
        "product_id": 26,
        "detail_type": null,
        "img_th": "20191216212603oUHGD.png",
        "is_active": "Y",
        "created_at": "2020-04-28 15:48:32",
        "updated_at": "2020-04-28 15:48:32"
    },
    {
        "id": 67,
        "seq": 1,
        "product_id": 27,
        "detail_type": null,
        "img_th": "20191216230240ZfaEO.jpg",
        "is_active": "Y",
        "created_at": "2020-04-28 15:48:32",
        "updated_at": "2020-04-28 15:48:32"
    },
    {
        "id": 68,
        "seq": 1,
        "product_id": 28,
        "detail_type": null,
        "img_th": "20191216230821eo6vm.jpg",
        "is_active": "Y",
        "created_at": "2020-04-28 15:48:32",
        "updated_at": "2020-04-28 15:48:32"
    },
    {
        "id": 70,
        "seq": 1,
        "product_id": 30,
        "detail_type": null,
        "img_th": "20191217111524Irgb7.jpg",
        "is_active": "Y",
        "created_at": "2020-04-28 15:48:32",
        "updated_at": "2020-04-28 15:48:32"
    },
    {
        "id": 71,
        "seq": 2,
        "product_id": 30,
        "detail_type": null,
        "img_th": "20191217111532aFgoj.gif",
        "is_active": "Y",
        "created_at": "2020-04-28 15:48:32",
        "updated_at": "2020-04-28 15:48:32"
    },
    {
        "id": 72,
        "seq": 3,
        "product_id": 30,
        "detail_type": null,
        "img_th": "20191217111539s2E3H.jpg",
        "is_active": "Y",
        "created_at": "2020-04-28 15:48:32",
        "updated_at": "2020-04-28 15:48:32"
    },
    {
        "id": 73,
        "seq": 1,
        "product_id": 31,
        "detail_type": null,
        "img_th": "20191217112733PfVNO.jpg",
        "is_active": "Y",
        "created_at": "2020-04-28 15:48:32",
        "updated_at": "2020-04-28 15:48:32"
    },
    {
        "id": 78,
        "seq": 1,
        "product_id": 34,
        "detail_type": null,
        "img_th": "20191217120024kWPHP.jpg",
        "is_active": "Y",
        "created_at": "2020-04-28 15:48:32",
        "updated_at": "2020-04-28 15:48:32"
    },
    {
        "id": 79,
        "seq": 1,
        "product_id": 35,
        "detail_type": null,
        "img_th": "20191217120457n9VIZ.jpg",
        "is_active": "Y",
        "created_at": "2020-04-28 15:48:32",
        "updated_at": "2020-04-28 15:48:32"
    },
    {
        "id": 80,
        "seq": 1,
        "product_id": 36,
        "detail_type": null,
        "img_th": "20191217140042PSZft.jpg",
        "is_active": "Y",
        "created_at": "2020-04-28 15:48:32",
        "updated_at": "2020-04-28 15:48:32"
    },
    {
        "id": 81,
        "seq": 1,
        "product_id": 37,
        "detail_type": null,
        "img_th": "20191217140459JuMuu.jpg",
        "is_active": "Y",
        "created_at": "2020-04-28 15:48:32",
        "updated_at": "2020-04-28 15:48:32"
    },
    {
        "id": 82,
        "seq": 1,
        "product_id": 38,
        "detail_type": null,
        "img_th": "20191217140859OzFv3.jpg",
        "is_active": "Y",
        "created_at": "2020-04-28 15:48:32",
        "updated_at": "2020-04-28 15:48:32"
    },
    {
        "id": 83,
        "seq": 1,
        "product_id": 39,
        "detail_type": null,
        "img_th": "20191217141355ZaXRY.jpg",
        "is_active": "Y",
        "created_at": "2020-04-28 15:48:32",
        "updated_at": "2020-04-28 15:48:32"
    },
    {
        "id": 84,
        "seq": 1,
        "product_id": 40,
        "detail_type": null,
        "img_th": "20191217141720k9XYa.jpg",
        "is_active": "Y",
        "created_at": "2020-04-28 15:48:32",
        "updated_at": "2020-04-28 15:48:32"
    },
    {
        "id": 85,
        "seq": 1,
        "product_id": 41,
        "detail_type": null,
        "img_th": "20191217142144ALNaC.jpg",
        "is_active": "Y",
        "created_at": "2020-04-28 15:48:32",
        "updated_at": "2020-04-28 15:48:32"
    },
    {
        "id": 86,
        "seq": 2,
        "product_id": 41,
        "detail_type": null,
        "img_th": "20191217142150o9gLX.gif",
        "is_active": "Y",
        "created_at": "2020-04-28 15:48:32",
        "updated_at": "2020-04-28 15:48:32"
    },
    {
        "id": 87,
        "seq": 3,
        "product_id": 41,
        "detail_type": null,
        "img_th": "20191217142159HmPJq.jpg",
        "is_active": "Y",
        "created_at": "2020-04-28 15:48:32",
        "updated_at": "2020-04-28 15:48:32"
    },
    {
        "id": 88,
        "seq": 1,
        "product_id": 42,
        "detail_type": null,
        "img_th": "20191217142520jLxIu.jpg",
        "is_active": "Y",
        "created_at": "2020-04-28 15:48:32",
        "updated_at": "2020-04-28 15:48:32"
    },
    {
        "id": 89,
        "seq": 2,
        "product_id": 42,
        "detail_type": null,
        "img_th": "20191217142529ncw5g.gif",
        "is_active": "Y",
        "created_at": "2020-04-28 15:48:32",
        "updated_at": "2020-04-28 15:48:32"
    },
    {
        "id": 90,
        "seq": 3,
        "product_id": 42,
        "detail_type": null,
        "img_th": "20191217142538GGtLm.jpg",
        "is_active": "Y",
        "created_at": "2020-04-28 15:48:32",
        "updated_at": "2020-04-28 15:48:32"
    },
    {
        "id": 91,
        "seq": 1,
        "product_id": 43,
        "detail_type": null,
        "img_th": "20191217143418k9RIi.jpg",
        "is_active": "Y",
        "created_at": "2020-04-28 15:48:32",
        "updated_at": "2020-04-28 15:48:32"
    },
    {
        "id": 92,
        "seq": 2,
        "product_id": 43,
        "detail_type": null,
        "img_th": "201912171434331JwyZ.gif",
        "is_active": "Y",
        "created_at": "2020-04-28 15:48:32",
        "updated_at": "2020-04-28 15:48:32"
    },
    {
        "id": 93,
        "seq": 3,
        "product_id": 43,
        "detail_type": null,
        "img_th": "201912171434402Ai0N.jpg",
        "is_active": "Y",
        "created_at": "2020-04-28 15:48:32",
        "updated_at": "2020-04-28 15:48:32"
    },
    {
        "id": 94,
        "seq": 4,
        "product_id": 43,
        "detail_type": null,
        "img_th": "20191217144814rYNZU.gif",
        "is_active": "Y",
        "created_at": "2020-04-28 15:48:32",
        "updated_at": "2020-04-28 15:48:32"
    },
    {
        "id": 95,
        "seq": 1,
        "product_id": 44,
        "detail_type": null,
        "img_th": "201912171450424dmzr.jpg",
        "is_active": "Y",
        "created_at": "2020-04-28 15:48:32",
        "updated_at": "2020-04-28 15:48:32"
    },
    {
        "id": 96,
        "seq": 2,
        "product_id": 44,
        "detail_type": null,
        "img_th": "20191217145101X4moP.gif",
        "is_active": "Y",
        "created_at": "2020-04-28 15:48:32",
        "updated_at": "2020-04-28 15:48:32"
    },
    {
        "id": 97,
        "seq": 3,
        "product_id": 44,
        "detail_type": null,
        "img_th": "20191217145107KJDhp.jpg",
        "is_active": "Y",
        "created_at": "2020-04-28 15:48:32",
        "updated_at": "2020-04-28 15:48:32"
    },
    {
        "id": 98,
        "seq": 1,
        "product_id": 45,
        "detail_type": null,
        "img_th": "20191217145514SPtPz.jpg",
        "is_active": "Y",
        "created_at": "2020-04-28 15:48:32",
        "updated_at": "2020-04-28 15:48:32"
    },
    {
        "id": 99,
        "seq": 1,
        "product_id": 46,
        "detail_type": null,
        "img_th": "20191217145817Haplh.jpg",
        "is_active": "Y",
        "created_at": "2020-04-28 15:48:32",
        "updated_at": "2020-04-28 15:48:32"
    },
    {
        "id": 100,
        "seq": 1,
        "product_id": 47,
        "detail_type": null,
        "img_th": "20191217150204auqg1.jpg",
        "is_active": "Y",
        "created_at": "2020-04-28 15:48:32",
        "updated_at": "2020-04-28 15:48:32"
    },
    {
        "id": 101,
        "seq": 1,
        "product_id": 48,
        "detail_type": null,
        "img_th": "20191217150547XwNVi.jpg",
        "is_active": "Y",
        "created_at": "2020-04-28 15:48:32",
        "updated_at": "2020-04-28 15:48:32"
    },
    {
        "id": 102,
        "seq": 1,
        "product_id": 49,
        "detail_type": null,
        "img_th": "20191217150931yYkAp.jpg",
        "is_active": "Y",
        "created_at": "2020-04-28 15:48:32",
        "updated_at": "2020-04-28 15:48:32"
    },
    {
        "id": 103,
        "seq": 1,
        "product_id": 50,
        "detail_type": null,
        "img_th": "20191217151845570iG.jpg",
        "is_active": "Y",
        "created_at": "2020-04-28 15:48:32",
        "updated_at": "2020-04-28 15:48:32"
    },
    {
        "id": 104,
        "seq": 2,
        "product_id": 50,
        "detail_type": null,
        "img_th": "20191217151850Bgnk6.gif",
        "is_active": "Y",
        "created_at": "2020-04-28 15:48:32",
        "updated_at": "2020-04-28 15:48:32"
    },
    {
        "id": 105,
        "seq": 3,
        "product_id": 50,
        "detail_type": null,
        "img_th": "20191217151858hDCBM.jpg",
        "is_active": "Y",
        "created_at": "2020-04-28 15:48:32",
        "updated_at": "2020-04-28 15:48:32"
    },
    {
        "id": 106,
        "seq": 1,
        "product_id": 51,
        "detail_type": null,
        "img_th": "20191217152226xJYLx.png",
        "is_active": "Y",
        "created_at": "2020-04-28 15:48:32",
        "updated_at": "2020-04-28 15:48:32"
    },
    {
        "id": 107,
        "seq": 2,
        "product_id": 51,
        "detail_type": null,
        "img_th": "20191217152231OdVfu.gif",
        "is_active": "Y",
        "created_at": "2020-04-28 15:48:32",
        "updated_at": "2020-04-28 15:48:32"
    },
    {
        "id": 108,
        "seq": 3,
        "product_id": 51,
        "detail_type": null,
        "img_th": "20191217152239blBMQ.png",
        "is_active": "Y",
        "created_at": "2020-04-28 15:48:32",
        "updated_at": "2020-04-28 15:48:32"
    },
    {
        "id": 109,
        "seq": 1,
        "product_id": 52,
        "detail_type": null,
        "img_th": "20191217152709s4SSX.jpg",
        "is_active": "Y",
        "created_at": "2020-04-28 15:48:32",
        "updated_at": "2020-04-28 15:48:32"
    },
    {
        "id": 110,
        "seq": 2,
        "product_id": 52,
        "detail_type": null,
        "img_th": "201912171527128bVJt.jpg",
        "is_active": "Y",
        "created_at": "2020-04-28 15:48:32",
        "updated_at": "2020-04-28 15:48:32"
    },
    {
        "id": 111,
        "seq": 1,
        "product_id": 53,
        "detail_type": null,
        "img_th": "20191217153101d51W7.jpg",
        "is_active": "Y",
        "created_at": "2020-04-28 15:48:32",
        "updated_at": "2020-04-28 15:48:32"
    },
    {
        "id": 112,
        "seq": 2,
        "product_id": 53,
        "detail_type": null,
        "img_th": "20191217153108zbhcs.jpg",
        "is_active": "Y",
        "created_at": "2020-04-28 15:48:32",
        "updated_at": "2020-04-28 15:48:32"
    },
    {
        "id": 113,
        "seq": 1,
        "product_id": 54,
        "detail_type": null,
        "img_th": "20191217172809SEZUW.jpg",
        "is_active": "Y",
        "created_at": "2020-04-28 15:48:32",
        "updated_at": "2020-04-28 15:48:32"
    },
    {
        "id": 114,
        "seq": 1,
        "product_id": 55,
        "detail_type": null,
        "img_th": "201912171732383XzvF.jpg",
        "is_active": "Y",
        "created_at": "2020-04-28 15:48:32",
        "updated_at": "2020-04-28 15:48:32"
    },
    {
        "id": 115,
        "seq": 1,
        "product_id": 56,
        "detail_type": null,
        "img_th": "20191217173928bZVZ4.jpg",
        "is_active": "Y",
        "created_at": "2020-04-28 15:48:32",
        "updated_at": "2020-04-28 15:48:32"
    },
    {
        "id": 116,
        "seq": 1,
        "product_id": 57,
        "detail_type": null,
        "img_th": "20191217174231H17mw.jpg",
        "is_active": "Y",
        "created_at": "2020-04-28 15:48:32",
        "updated_at": "2020-04-28 15:48:32"
    },
    {
        "id": 117,
        "seq": 1,
        "product_id": 58,
        "detail_type": null,
        "img_th": "20191217174546ncZGF.jpg",
        "is_active": "Y",
        "created_at": "2020-04-28 15:48:32",
        "updated_at": "2020-04-28 15:48:32"
    },
    {
        "id": 118,
        "seq": 1,
        "product_id": 59,
        "detail_type": null,
        "img_th": "201912171748283stjq.jpg",
        "is_active": "Y",
        "created_at": "2020-04-28 15:48:32",
        "updated_at": "2020-04-28 15:48:32"
    },
    {
        "id": 119,
        "seq": 1,
        "product_id": 60,
        "detail_type": null,
        "img_th": "20191217175103R6RcI.jpg",
        "is_active": "Y",
        "created_at": "2020-04-28 15:48:32",
        "updated_at": "2020-04-28 15:48:32"
    },
    {
        "id": 120,
        "seq": 1,
        "product_id": 61,
        "detail_type": null,
        "img_th": "20191218102843LgUQB.jpg",
        "is_active": "Y",
        "created_at": "2020-04-28 15:48:32",
        "updated_at": "2020-04-28 15:48:32"
    },
    {
        "id": 121,
        "seq": 1,
        "product_id": 62,
        "detail_type": null,
        "img_th": "20191218103435JvGWL.jpg",
        "is_active": "Y",
        "created_at": "2020-04-28 15:48:32",
        "updated_at": "2020-04-28 15:48:32"
    },
    {
        "id": 122,
        "seq": 1,
        "product_id": 63,
        "detail_type": null,
        "img_th": "20191218110340mb07f.jpg",
        "is_active": "Y",
        "created_at": "2020-04-28 15:48:32",
        "updated_at": "2020-04-28 15:48:32"
    },
    {
        "id": 123,
        "seq": 1,
        "product_id": 64,
        "detail_type": null,
        "img_th": "20191218110718DpBDK.jpg",
        "is_active": "Y",
        "created_at": "2020-04-28 15:48:32",
        "updated_at": "2020-04-28 15:48:32"
    },
    {
        "id": 124,
        "seq": 1,
        "product_id": 65,
        "detail_type": null,
        "img_th": "201912181118150v2An.png",
        "is_active": "Y",
        "created_at": "2020-04-28 15:48:32",
        "updated_at": "2020-04-28 15:48:32"
    },
    {
        "id": 125,
        "seq": 1,
        "product_id": 66,
        "detail_type": null,
        "img_th": "20191218113010HRoKP.jpg",
        "is_active": "Y",
        "created_at": "2020-04-28 15:48:32",
        "updated_at": "2020-04-28 15:48:32"
    },
    {
        "id": 126,
        "seq": 1,
        "product_id": 67,
        "detail_type": null,
        "img_th": "20191218113612Cmuso.jpg",
        "is_active": "Y",
        "created_at": "2020-04-28 15:48:32",
        "updated_at": "2020-04-28 15:48:32"
    },
    {
        "id": 127,
        "seq": 1,
        "product_id": 68,
        "detail_type": null,
        "img_th": "20191218115110d1Se9.jpg",
        "is_active": "Y",
        "created_at": "2020-04-28 15:48:32",
        "updated_at": "2020-04-28 15:48:32"
    },
    {
        "id": 128,
        "seq": 1,
        "product_id": 69,
        "detail_type": null,
        "img_th": "20191218115424cFw0u.jpg",
        "is_active": "Y",
        "created_at": "2020-04-28 15:48:32",
        "updated_at": "2020-04-28 15:48:32"
    },
    {
        "id": 129,
        "seq": 1,
        "product_id": 70,
        "detail_type": null,
        "img_th": "20191218115721opZm9.jpg",
        "is_active": "Y",
        "created_at": "2020-04-28 15:48:32",
        "updated_at": "2020-04-28 15:48:32"
    },
    {
        "id": 130,
        "seq": 1,
        "product_id": 71,
        "detail_type": null,
        "img_th": "20191218115955dxHPl.jpg",
        "is_active": "Y",
        "created_at": "2020-04-28 15:48:32",
        "updated_at": "2020-04-28 15:48:32"
    },
    {
        "id": 131,
        "seq": 1,
        "product_id": 72,
        "detail_type": null,
        "img_th": "20191218120241qu04F.jpg",
        "is_active": "Y",
        "created_at": "2020-04-28 15:48:32",
        "updated_at": "2020-04-28 15:48:32"
    },
    {
        "id": 132,
        "seq": 1,
        "product_id": 73,
        "detail_type": null,
        "img_th": "20191218120642OcOJB.jpg",
        "is_active": "Y",
        "created_at": "2020-04-28 15:48:32",
        "updated_at": "2020-04-28 15:48:32"
    },
    {
        "id": 133,
        "seq": 1,
        "product_id": 74,
        "detail_type": null,
        "img_th": "20191218121014acqrH.jpg",
        "is_active": "Y",
        "created_at": "2020-04-28 15:48:32",
        "updated_at": "2020-04-28 15:48:32"
    },
    {
        "id": 134,
        "seq": 1,
        "product_id": 75,
        "detail_type": null,
        "img_th": "20191218121709FlwPy.jpg",
        "is_active": "Y",
        "created_at": "2020-04-28 15:48:32",
        "updated_at": "2020-04-28 15:48:32"
    },
    {
        "id": 135,
        "seq": 1,
        "product_id": 76,
        "detail_type": null,
        "img_th": "20191218122113UpWv4.jpg",
        "is_active": "Y",
        "created_at": "2020-04-28 15:48:32",
        "updated_at": "2020-04-28 15:48:32"
    },
    {
        "id": 136,
        "seq": 1,
        "product_id": 77,
        "detail_type": null,
        "img_th": "20191218122416NUUgJ.jpg",
        "is_active": "Y",
        "created_at": "2020-04-28 15:48:32",
        "updated_at": "2020-04-28 15:48:32"
    },
    {
        "id": 137,
        "seq": 1,
        "product_id": 78,
        "detail_type": null,
        "img_th": "201912181226596h8TW.jpg",
        "is_active": "Y",
        "created_at": "2020-04-28 15:48:32",
        "updated_at": "2020-04-28 15:48:32"
    },
    {
        "id": 138,
        "seq": 1,
        "product_id": 79,
        "detail_type": null,
        "img_th": "20191218122940qRFKW.jpg",
        "is_active": "Y",
        "created_at": "2020-04-28 15:48:32",
        "updated_at": "2020-04-28 15:48:32"
    },
    {
        "id": 139,
        "seq": 1,
        "product_id": 80,
        "detail_type": null,
        "img_th": "20191218123305Z3bVB.jpg",
        "is_active": "Y",
        "created_at": "2020-04-28 15:48:32",
        "updated_at": "2020-04-28 15:48:32"
    },
    {
        "id": 142,
        "seq": 1,
        "product_id": 1,
        "detail_type": null,
        "img_th": "20200120231417GiMWp.png",
        "is_active": "Y",
        "created_at": "2020-04-28 15:48:32",
        "updated_at": "2020-04-28 15:48:32"
    },
    {
        "id": 143,
        "seq": 1,
        "product_id": 4,
        "detail_type": null,
        "img_th": "2019121611442001xMC.png",
        "is_active": "Y",
        "created_at": "2020-04-28 15:48:32",
        "updated_at": "2020-04-28 15:48:32"
    },
    {
        "id": 144,
        "seq": 1,
        "product_id": 7,
        "detail_type": null,
        "img_th": "20191216123932RDSV3.jpg",
        "is_active": "Y",
        "created_at": "2020-04-28 15:48:32",
        "updated_at": "2020-04-28 15:48:32"
    },
    {
        "id": 145,
        "seq": 1,
        "product_id": 9,
        "detail_type": null,
        "img_th": "20191216125425474cb.jpg",
        "is_active": "Y",
        "created_at": "2020-04-28 15:48:32",
        "updated_at": "2020-04-28 15:48:32"
    },
    {
        "id": 146,
        "seq": 1,
        "product_id": 22,
        "detail_type": null,
        "img_th": "20191216170655tkDde.png",
        "is_active": "Y",
        "created_at": "2020-04-28 15:48:32",
        "updated_at": "2020-04-28 15:48:32"
    },
    {
        "id": 147,
        "seq": 1,
        "product_id": 23,
        "detail_type": null,
        "img_th": "20191216173200h5yah.jpg",
        "is_active": "Y",
        "created_at": "2020-04-28 15:48:32",
        "updated_at": "2020-04-28 15:48:32"
    },
    {
        "id": 148,
        "seq": 1,
        "product_id": 24,
        "detail_type": null,
        "img_th": "20191216173956TRv4e.png",
        "is_active": "Y",
        "created_at": "2020-04-28 15:48:32",
        "updated_at": "2020-04-28 15:48:32"
    },
    {
        "id": 149,
        "seq": 1,
        "product_id": 25,
        "detail_type": null,
        "img_th": "20191216174630oSkuq.png",
        "is_active": "Y",
        "created_at": "2020-04-28 15:48:32",
        "updated_at": "2020-04-28 15:48:32"
    },
    {
        "id": 150,
        "seq": 2,
        "product_id": 25,
        "detail_type": null,
        "img_th": "201912161746402eAKG.jpg",
        "is_active": "Y",
        "created_at": "2020-04-28 15:48:32",
        "updated_at": "2020-04-28 15:48:32"
    },
    {
        "id": 151,
        "seq": 1,
        "product_id": 29,
        "detail_type": null,
        "img_th": "20191217102815x7n8t.jpg",
        "is_active": "Y",
        "created_at": "2020-04-28 15:48:32",
        "updated_at": "2020-04-28 15:48:32"
    },
    {
        "id": 152,
        "seq": 1,
        "product_id": 32,
        "detail_type": null,
        "img_th": "20191217113232OMOiA.jpg",
        "is_active": "Y",
        "created_at": "2020-04-28 15:48:32",
        "updated_at": "2020-04-28 15:48:32"
    },
    {
        "id": 153,
        "seq": 1,
        "product_id": 33,
        "detail_type": null,
        "img_th": "20191217114813u2Axr.jpg",
        "is_active": "Y",
        "created_at": "2020-04-28 15:48:32",
        "updated_at": "2020-04-28 15:48:32"
    },
    {
        "id": 154,
        "seq": 2,
        "product_id": 33,
        "detail_type": null,
        "img_th": "201912171148228mcbA.png",
        "is_active": "Y",
        "created_at": "2020-04-28 15:48:32",
        "updated_at": "2020-04-28 15:48:32"
    },
    {
        "id": 155,
        "seq": 3,
        "product_id": 33,
        "detail_type": null,
        "img_th": "20191217114831zr7c5.jpg",
        "is_active": "Y",
        "created_at": "2020-04-28 15:48:32",
        "updated_at": "2020-04-28 15:48:32"
    }
]
